2 30 

20 17 9 4 2 12 7 5 8 15 1 13 17 10 2 5 1 17 12 0 12 4 10 7 7 3 19 17 12 13 2 19 13 20 20 4 10 11 8 15 15 7 8 20 18 11 8 14 6 10 0 16 9 11 17 4 2 18 20 
9 3 6 14 12 3 18 2 4 12 7 19 19 17 10 5 5 7 7 19 12 1 7 12 1 10 13 16 15 5 12 12 15 10 9 0 1 7 7 4 8 12 4 2 16 9 15 15 1 9 6 10 17 11 3 4 17 1 
11 14 20 7 0 3 8 19 18 8 7 12 0 8 11 18 20 5 20 19 17 18 18 15 11 19 16 20 12 3 7 10 6 18 12 18 15 9 12 2 17 12 10 17 13 10 12 13 1 3 5 9 14 0 10 8 19 
8 5 1 6 17 17 9 6 15 9 0 3 18 6 7 17 13 3 12 14 0 11 8 4 10 18 15 18 3 9 9 9 12 2 0 11 8 10 3 5 9 3 18 5 3 3 1 13 14 12 3 18 13 11 12 19 
0 10 8 0 13 1 19 18 9 2 13 12 17 10 13 18 3 6 12 5 9 13 6 10 10 12 14 4 2 11 8 19 17 13 13 8 19 3 19 16 20 14 5 1 15 2 10 1 3 15 1 14 5 3 3 
8 10 11 3 8 4 12 2 4 17 8 20 5 4 18 9 12 2 16 18 6 20 17 18 9 18 17 12 13 3 12 7 18 2 6 17 13 1 2 4 13 13 20 2 18 19 10 11 2 12 1 2 20 16 
13 17 5 18 4 1 18 12 7 16 15 7 18 14 2 10 5 11 5 14 1 14 12 18 12 16 17 7 1 4 20 11 5 7 14 13 4 3 5 11 20 6 3 16 12 20 17 12 10 16 7 17 0 
0 3 19 8 12 17 12 0 3 0 12 19 9 12 5 9 19 10 5 4 3 11 18 19 0 20 14 0 19 10 17 16 20 10 18 18 2 5 1 14 20 3 2 7 8 2 0 8 9 13 6 1 
20 19 3 10 13 19 1 2 15 11 4 13 13 5 7 13 5 6 7 19 10 13 9 19 6 5 1 10 15 10 0 1 13 4 10 7 8 8 0 19 13 4 6 10 0 20 4 14 7 0 11 
11 0 3 4 2 10 14 14 2 8 8 14 2 11 4 0 10 13 19 9 20 13 8 11 3 0 2 0 3 13 14 1 1 3 19 0 2 0 9 4 3 14 9 13 7 11 11 15 18 11 
20 3 1 8 7 18 19 13 2 19 11 0 10 20 17 5 16 3 0 2 14 19 15 8 8 12 2 12 20 20 20 1 20 10 4 0 4 16 17 17 10 10 3 0 3 8 9 2 3 
4 12 17 6 5 1 20 10 5 3 0 4 16 0 18 19 7 13 5 6 15 14 5 4 1 1 5 3 15 8 5 20 11 0 6 17 9 10 10 15 17 11 16 11 5 14 9 16 
19 1 10 14 16 1 14 13 17 4 6 5 18 13 9 1 4 19 16 7 18 8 7 5 1 5 12 0 19 1 2 9 7 1 16 7 13 19 11 6 18 0 5 19 2 7 5 
16 12 10 20 1 18 14 12 10 4 0 10 3 20 0 0 7 8 13 17 0 16 9 0 0 19 3 0 11 5 0 6 20 14 11 1 6 11 4 7 19 10 9 18 6 13 
2 17 9 1 3 14 7 9 5 10 9 17 0 5 6 6 12 11 12 3 6 14 6 19 0 13 8 16 8 8 17 8 4 0 17 20 5 19 10 9 15 1 9 2 15 
7 4 8 0 3 8 8 14 14 10 8 13 0 1 12 0 19 6 4 15 16 6 15 11 1 16 2 19 8 2 6 15 6 20 10 15 16 2 2 20 2 15 8 2 
1 15 0 17 2 17 15 18 15 10 16 3 2 5 13 11 13 4 5 3 12 19 11 12 7 17 7 20 5 17 18 10 8 15 17 6 14 7 7 2 3 2 10 
7 14 0 8 15 7 10 13 1 20 1 16 3 11 11 10 11 13 4 14 7 16 15 1 7 20 19 15 0 14 18 5 1 17 2 1 19 8 10 3 4 7 
3 0 11 5 14 4 11 13 0 12 6 16 14 3 20 3 2 4 0 13 3 9 19 7 2 1 8 18 6 7 17 20 11 15 7 5 10 20 14 12 7 
0 14 17 12 16 11 13 12 13 14 1 6 13 11 10 11 11 0 13 0 9 16 3 20 10 1 16 1 11 6 17 15 7 2 16 14 18 11 4 12 
18 0 20 15 7 8 7 16 3 6 19 20 4 19 10 9 16 19 19 3 18 16 6 14 3 9 7 8 19 4 8 19 3 20 14 6 14 17 14 
18 3 5 5 9 0 14 14 14 16 9 6 13 10 10 16 16 6 14 3 12 6 5 8 8 1 6 7 12 17 6 11 16 10 18 8 15 2 
8 4 16 6 11 4 20 6 20 5 5 7 4 18 7 13 11 11 15 1 14 4 20 15 13 17 14 5 16 18 10 12 11 4 6 8 11 
15 5 4 11 9 19 12 15 3 3 4 19 4 2 2 5 0 18 18 10 19 8 14 7 14 5 19 9 11 7 19 1 17 9 20 4 
19 12 19 3 16 20 6 7 7 18 1 1 11 7 12 0 19 6 9 7 12 19 3 10 14 2 16 3 15 13 8 15 20 16 16 
10 1 16 10 15 5 18 15 18 12 12 19 12 19 0 20 12 17 9 18 5 7 0 17 4 15 7 15 18 20 11 1 18 4 
8 14 20 0 4 12 1 15 8 7 10 3 10 3 13 1 16 19 12 9 20 20 9 13 16 20 4 0 0 5 2 10 6 
14 15 3 4 2 5 9 10 13 11 12 14 5 19 3 13 1 9 16 20 1 18 16 8 9 11 20 7 9 17 16 13 
10 0 3 3 18 16 11 7 18 14 1 8 18 18 14 10 2 8 8 17 10 8 7 20 20 10 5 6 14 19 9 
20 19 7 11 17 12 13 7 7 18 19 2 7 7 12 8 2 13 11 13 18 16 6 16 2 13 9 5 7 17 
6 8 18 5 20 19 18 3 1 6 4 16 12 17 2 6 15 0 11 11 20 10 7 5 14 4 6 18 12 
13 19 9 18 4 8 20 14 7 12 0 7 17 7 11 10 0 20 9 0 8 3 15 3 19 3 9 6 
19 9 4 20 18 20 5 12 18 10 11 0 12 6 12 19 8 10 13 1 7 16 6 1 10 15 7 
16 13 20 10 13 17 19 11 11 7 5 10 16 7 14 10 1 20 12 17 18 13 16 7 19 15 
7 16 15 2 17 19 12 13 6 9 17 20 19 14 0 10 13 5 0 18 15 6 1 0 17 
17 1 2 3 19 2 10 2 5 0 14 16 14 0 17 18 3 11 11 5 18 5 6 14 
0 0 18 0 17 14 9 3 18 1 3 18 17 17 10 5 5 8 7 19 4 18 4 
15 19 20 16 4 1 17 18 14 12 4 15 2 17 14 19 3 9 8 5 9 4 
13 20 0 15 9 16 18 0 14 17 20 11 2 1 6 3 9 19 19 0 13 
4 13 5 16 19 11 17 1 14 9 1 13 4 8 10 1 19 12 15 10 
12 5 3 1 10 11 8 9 11 2 11 1 17 18 2 15 15 9 2 
7 1 1 12 2 10 14 19 7 4 9 9 6 18 11 16 9 18 
4 19 18 9 20 9 18 17 4 15 3 16 7 20 8 10 2 
15 5 7 8 14 7 7 18 15 1 18 10 7 12 20 19 
20 0 1 15 16 6 16 1 0 5 19 9 14 14 14 
15 5 1 20 8 17 18 19 12 10 19 17 19 4 
18 10 5 2 4 3 11 20 5 0 14 15 2 
15 13 9 3 8 18 0 16 11 3 4 19 
14 10 5 15 19 9 20 18 19 9 8 
16 19 13 18 18 20 10 6 1 2 
10 7 13 15 6 1 11 11 0 
16 7 0 3 16 0 18 14 
5 20 15 4 16 11 18 
0 10 11 4 14 3 
2 1 3 2 19 
0 19 20 18 
20 5 18 
8 10 
16 

